Week 4: Data Wrangling
…
---

# Use `select` to order columns

```r
library(fivethirtyeight)
college_grad_students
```

```
## # A tibble: 173 x 22
##    major_code major     major_category    grad_total grad_sample_size grad_employed grad_employed_fu~ grad_unemployed grad_unemployme~ grad_p25th
##         <int> <chr>     <chr>                  <int>            <int>         <int>             <int>           <int>            <dbl>      <dbl>
##  1       5601 Construc~ Industrial Arts ~       9173              200          7098              6511             681           0.0875     110000
##  2       6004 Commerci~ Arts                   53864              882         40492             29553            2482           0.0578      89000
##  3       6211 Hospital~ Business               24417              437         18368             14784            1465           0.0739     100000
##  4       2201 Cosmetol~ Industrial Arts ~       5411               72          3590              2701             316           0.0809      85000
##  5       2001 Communic~ Computers & Math~       9109              171          7512              5622             466           0.0584      83700
##  6       3201 Court Re~ Law & Public Pol~       1542               22          1008               860               0           0          120000
##  7       6206 Marketin~ Business              190996             3738        151570            123045            8324           0.0521     120000
##  8       1101 Agricult~ Agriculture & Na~      17488              386         13104             11207             473           0.0348     100000
##  9       2101 Computer~ Computers & Math~       5611               98          4716              3981             119           0.0246     114000
## 10       1904 Advertis~ Communications &~      33928              688         28517             22523             899           0.0306      90000
## # ... with 163 more rows, and 12 more variables: grad_median <dbl>, grad_p75th <int>, nongrad_total <int>, nongrad_employed <int>,
## #   nongrad_employed_fulltime_yearround <int>, nongrad_unemployed <int>, nongrad_unemployment_rate <dbl>, nongrad_p25th <dbl>,
## #   nongrad_median <dbl>, nongrad_p75th <dbl>, grad_share <dbl>, grad_premium <dbl>
```

---

# Use `select` to order columns

```r
college_grad_students %>%
	select(major_code, grad_total, grad_sample_size, everything())
```

```
## # A tibble: 173 x 22
##    major_code grad_total grad_sample_size major     major_category    grad_employed grad_employed_fu~ grad_unemployed grad_unemployme~ grad_p25th
##         <int>      <int>            <int> <chr>     <chr>                     <int>             <int>           <int>            <dbl>      <dbl>
##  1       5601       9173              200 Construc~ Industrial Arts ~          7098              6511             681           0.0875     110000
##  2       6004      53864              882 Commerci~ Arts                      40492             29553            2482           0.0578      89000
##  3       6211      24417              437 Hospital~ Business                  18368             14784            1465           0.0739     100000
##  4       2201       5411               72 Cosmetol~ Industrial Arts ~          3590              2701             316           0.0809      85000
##  5       2001       9109              171 Communic~ Computers & Math~          7512              5622             466           0.0584      83700
##  6       3201       1542               22 Court Re~ Law & Public Pol~          1008               860               0           0          120000
##  7       6206     190996             3738 Marketin~ Business                 151570            123045            8324           0.0521     120000
##  8       1101      17488              386 Agricult~ Agriculture & Na~         13104             11207             473           0.0348     100000
##  9       2101       5611               98 Computer~ Computers & Math~          4716              3981             119           0.0246     114000
## 10       1904      33928              688 Advertis~ Communications &~         28517             22523             899           0.0306      90000
## # ... with 163 more rows, and 12 more variables: grad_median <dbl>, grad_p75th <int>, nongrad_total <int>, nongrad_employed <int>,
## #   nongrad_employed_fulltime_yearround <int>, nongrad_unemployed <int>, nongrad_unemployment_rate <dbl>, nongrad_p25th <dbl>,
## #   nongrad_median <dbl>, nongrad_p75th <dbl>, grad_share <dbl>, grad_premium <dbl>
```
…
---

# `starts_with()`

```r
reads <- read_csv(here("data", "Project_Reads_Scores.csv")) %>% 
  clean_names()

reads %>% 
    select(starts_with("test"))
```

```
## # A tibble: 48 x 3
##    test_year              test_type test_site
##    <chr>                  <chr>     <chr>    
##  1 06/01/2016 12:00:00 AM YEAR END  VIRDEN   
##  2 06/01/2016 12:00:00 AM YEAR END  VIRDEN   
##  3 06/01/2016 12:00:00 AM YEAR END  VIRDEN   
##  4 06/01/2016 12:00:00 AM YEAR END  VIRDEN   
##  5 06/01/2016 12:00:00 AM YEAR END  VIRDEN   
##  6 06/01/2016 12:00:00 AM YEAR END  VIRDEN   
##  7 06/01/2016 12:00:00 AM YEAR END  VIRDEN   
##  8 06/01/2016 12:00:00 AM YEAR END  VIRDEN   
##  9 06/01/2016 12:00:00 AM YEAR END  VIRDEN   
## 10 06/01/2016 12:00:00 AM YEAR END  VIRDEN   
## # ... with 38 more rows
```

---

# `ends_with()`

```r
reads %>% 
    select(ends_with("score"))
```

```
## # A tibble: 48 x 10
##    pre_test_score post_test_score unit_1_score unit_2_score unit_3_score unit_4_score unit_5_6_score unit_7_score unit_8_score total_score
##             <dbl>           <dbl>        <dbl>        <dbl>        <dbl>        <dbl>          <dbl>        <dbl>        <dbl>       <dbl>
##  1             43              92            3            4            6            8             11           22           18         207
##  2             46             104            5            5            6            8             11           20           19         224
##  3             39              75            4            4            6            9             16           19           21         193
##  4             35             115            4            4            6           10             13           18           18         223
##  5             46              85            2            5            6            7             12           19           16         198
##  6             35              91            5            5            7            7             18           23           19         210
##  7             40              96            5            5            6            7             11           21           20         211
##  8             39              74            4            5            5            8             12           16           17         180
##  9             40              90            6            4            5            8             15           18           20         206
## 10             45              86            4            5            5            7             14           21           19         206
## # ... with 38 more rows
```

---

# `contains()`

```r
reads %>% 
    select(contains("test"))
```

```
## # A tibble: 48 x 7
##    test_year              test_type test_site pre_test_score pre_test_percent post_test_score post_test_percent
##    <chr>                  <chr>     <chr>              <dbl> <chr>                      <dbl> <chr>            
##  1 06/01/2016 12:00:00 AM YEAR END  VIRDEN                43 29%                           92 61%              
##  2 06/01/2016 12:00:00 AM YEAR END  VIRDEN                46 31%                          104 69%              
##  3 06/01/2016 12:00:00 AM YEAR END  VIRDEN                39 26%                           75 50%              
##  4 06/01/2016 12:00:00 AM YEAR END  VIRDEN                35 23%                          115 77%              
##  5 06/01/2016 12:00:00 AM YEAR END  VIRDEN                46 31%                           85 57%              
##  6 06/01/2016 12:00:00 AM YEAR END  VIRDEN                35 23%                           91 61%              
##  7 06/01/2016 12:00:00 AM YEAR END  VIRDEN                40 27%                           96 64%              
##  8 06/01/2016 12:00:00 AM YEAR END  VIRDEN                39 26%                           74 49%              
##  9 06/01/2016 12:00:00 AM YEAR END  VIRDEN                40 27%                           90 60%              
## 10 06/01/2016 12:00:00 AM YEAR END  VIRDEN                45 30%                           86 57%              
## # ... with 38 more rows
```
…
# `all_of()`

```r
vars <- c("pre_test_score", "pre_test_percent", "post_test_score", "post_test_percent")
```

.left_pull[

```r
reads %>% 
    select(all_of(vars))
```

```
## # A tibble: 48 x 4
##    pre_test_score pre_test_percent post_test_score post_test_percent
##             <dbl> <chr>                      <dbl> <chr>            
##  1             43 29%                           92 61%              
##  2             46 31%                          104 69%              
##  3             39 26%                           75 50%              
##  4             35 23%                          115 77%              
##  5             46 31%                           85 57%              
##  6             35 23%                           91 61%              
##  7             40 27%                           96 64%              
##  8             39 26%                           74 49%              
##  9             40 27%                           90 60%              
## 10             45 30%                           86 57%              
## # ... with 38 more rows
```
…
---

# `any_of()`

.left_pull[

```r
reads %>% 
    select(any_of(vars))
```

```
## # A tibble: 48 x 4
##    pre_test_score pre_test_percent post_test_score post_test_percent
##             <dbl> <chr>                      <dbl> <chr>            
##  1             43 29%                           92 61%              
##  2             46 31%                          104 69%              
##  3             39 26%                           75 50%              
##  4             35 23%                          115 77%              
##  5             46 31%                           85 57%              
##  6             35 23%                           91 61%              
##  7             40 27%                           96 64%              
##  8             39 26%                           74 49%              
##  9             40 27%                           90 60%              
## 10             45 30%                           86 57%              
## # ... with 38 more rows
```
…
---

# Mix `select` methods and helpers

You can mix types and helper functions

```r
reads %>% 
    select(student_id, 1, starts_with("total"))
```

```
## # A tibble: 48 x 4
##    student_id test_year              total_score total_percent_correct
##    <chr>      <chr>                        <dbl> <chr>                
##  1 Virden 1   06/01/2016 12:00:00 AM         207 41%                  
##  2 Virden 2   06/01/2016 12:00:00 AM         224 45%                  
##  3 Virden 3   06/01/2016 12:00:00 AM         193 39%                  
##  4 Virden 4   06/01/2016 12:00:00 AM         223 45%                  
##  5 Virden 5   06/01/2016 12:00:00 AM         198 40%                  
##  6 Virden 6   06/01/2016 12:00:00 AM         210 42%                  
##  7 Virden 7   06/01/2016 12:00:00 AM         211 42%                  
##  8 Virden 8   06/01/2016 12:00:00 AM         180 36%                  
##  9 Virden 9   06/01/2016 12:00:00 AM         206 41%                  
## 10 Virden 10  06/01/2016 12:00:00 AM         206 41%                  
## # ... with 38 more rows
```

---

# Mix `select` methods and helpers

You can also use select to rearrange your columns

```r
reads %>% 
    select(student_id, 1, starts_with("total"), everything())
```

```
## # A tibble: 48 x 25
##    student_id test_year              total_score total_percent_c~ test_type test_site pre_test_score pre_test_percent post_test_score post_test_perce~
##    <chr>      <chr>                        <dbl> <chr>            <chr>     <chr>              <dbl> <chr>                      <dbl> <chr>           
##  1 Virden 1   06/01/2016 12:00:00 AM         207 41%              YEAR END  VIRDEN                43 29%                           92 61%             
##  2 Virden 2   06/01/2016 12:00:00 AM         224 45%              YEAR END  VIRDEN                46 31%                          104 69%             
##  3 Virden 3   06/01/2016 12:00:00 AM         193 39%              YEAR END  VIRDEN                39 26%                           75 50%             
##  4 Virden 4   06/01/2016 12:00:00 AM         223 45%              YEAR END  VIRDEN                35 23%                          115 77%             
##  5 Virden 5   06/01/2016 12:00:00 AM         198 40%              YEAR END  VIRDEN                46 31%                           85 57%             
##  6 Virden 6   06/01/2016 12:00:00 AM         210 42%              YEAR END  VIRDEN                35 23%                           91 61%             
##  7 Virden 7   06/01/2016 12:00:00 AM         211 42%              YEAR END  VIRDEN                40 27%                           96 64%             
##  8 Virden 8   06/01/2016 12:00:00 AM         180 36%              YEAR END  VIRDEN                39 26%                           74 49%             
##  9 Virden 9   06/01/2016 12:00:00 AM         206 41%              YEAR END  VIRDEN                40 27%                           90 60%             
## 10 Virden 10  06/01/2016 12:00:00 AM         206 41%              YEAR END  VIRDEN                45 30%                           86 57%             
## # ... with 38 more rows, and 15 more variables: percentage_change <chr>, unit_1_score <dbl>, unit_1_percent <chr>, unit_2_score <dbl>,
## #   unit_2_percent <chr>, unit_3_score <dbl>, unit_3_percent <chr>, unit_4_score <dbl>, unit_4_percent <chr>, unit_5_6_score <dbl>,
## #   unit_5_6_percent <chr>, unit_7_score <dbl>, unit_7_percent <chr>, unit_8_score <dbl>, unit_8_percent <chr>
```
…
---

# `filter()` numeric

.pull-left[

```r
mpg %>% 
  filter(cyl == 4)
```

```
## # A tibble: 81 x 11
##    manufacturer model      displ  year   cyl trans      drv     cty   hwy fl    class  
##    <chr>        <chr>      <dbl> <int> <int> <chr>      <chr> <int> <int> <chr> <chr>  
##  1 audi         a4           1.8  1999     4 auto(l5)   f        18    29 p     compact
##  2 audi         a4           1.8  1999     4 manual(m5) f        21    29 p     compact
##  3 audi         a4           2    2008     4 manual(m6) f        20    31 p     compact
##  4 audi         a4           2    2008     4 auto(av)   f        21    30 p     compact
##  5 audi         a4 quattro   1.8  1999     4 manual(m5) 4        18    26 p     compact
##  6 audi         a4 quattro   1.8  1999     4 auto(l5)   4        16    25 p     compact
##  7 audi         a4 quattro   2    2008     4 manual(m6) 4        20    28 p     compact
##  8 audi         a4 quattro   2    2008     4 auto(s6)   4        19    27 p     compact
##  9 chevrolet    malibu       2.4  1999     4 auto(l4)   f        19    27 r     midsize
## 10 chevrolet    malibu       2.4  2008     4 auto(l4)   f        22    30 r     midsize
## # ... with 71 more rows
```
]

.pull-right[

```r
mpg %>% 
  filter(hwy >= 22)
```

```
## # A tibble: 143 x 11
##    manufacturer model      displ  year   cyl trans      drv     cty   hwy fl    class  
##    <chr>        <chr>      <dbl> <int> <int> <chr>      <chr> <int> <int> <chr> <chr>  
##  1 audi         a4           1.8  1999     4 auto(l5)   f        18    29 p     compact
##  2 audi         a4           1.8  1999     4 manual(m5) f        21    29 p     compact
##  3 audi         a4           2    2008     4 manual(m6) f        20    31 p     compact
##  4 audi         a4           2    2008     4 auto(av)   f        21    30 p     compact
##  5 audi         a4           2.8  1999     6 auto(l5)   f        16    26 p     compact
##  6 audi         a4           2.8  1999     6 manual(m5) f        18    26 p     compact
##  7 audi         a4           3.1  2008     6 auto(av)   f        18    27 p     compact
##  8 audi         a4 quattro   1.8  1999     4 manual(m5) 4        18    26 p     compact
##  9 audi         a4 quattro   1.8  1999     4 auto(l5)   4        16    25 p     compact
## 10 audi         a4 quattro   2    2008     4 manual(m6) 4        20    28 p     compact
## # ... with 133 more rows
```
…
--

* anamaly in the data

```r
reads %>%
 count(student_id)
```

```
## # A tibble: 46 x 2
##    student_id                 n
##    <chr>                  <int>
##  1 All Students (Average)     3
##  2 Jones 1                    1
##  3 Jones 10                   1
##  4 Jones 11                   1
##  5 Jones 12                   1
##  6 Jones 13                   1
##  7 Jones 14                   1
##  8 Jones 15                   1
##  9 Jones 2                    1
## 10 Jones 3                    1
## # ... with 36 more rows
```

---

# Let's remove the aggregate rows

```r
students_only <- reads %>%
  filter(student_id != "All Students (Average)") 

students_only %>% 
  count(student_id)
```

```
## # A tibble: 45 x 2
##    student_id     n
##    <chr>      <int>
##  1 Jones 1        1
##  2 Jones 10       1
##  3 Jones 11       1
##  4 Jones 12       1
##  5 Jones 13       1
##  6 Jones 14       1
##  7 Jones 15       1
##  8 Jones 2        1
##  9 Jones 3        1
## 10 Jones 4        1
## # ... with 35 more rows
```
…
.footnote[
Note the lovely indentations and line breaks to help keep things straight
]

---

# Some new data

```r
(prepost <- reads %>% 
  select(student_id, test_site, pre_test_score, post_test_score))
```

```
## # A tibble: 48 x 4
##    student_id test_site pre_test_score post_test_score
##    <chr>      <chr>              <dbl>           <dbl>
##  1 Virden 1   VIRDEN                43              92
##  2 Virden 2   VIRDEN                46             104
##  3 Virden 3   VIRDEN                39              75
##  4 Virden 4   VIRDEN                35             115
##  5 Virden 5   VIRDEN                46              85
##  6 Virden 6   VIRDEN                35              91
##  7 Virden 7   VIRDEN                40              96
##  8 Virden 8   VIRDEN                39              74
##  9 Virden 9   VIRDEN                40              90
## 10 Virden 10  VIRDEN                45              86
## # ... with 38 more rows
```

---

# `mutate()`

**Add** a variable

```r
prepost %>% 
* mutate(gain = post_test_score - pre_test_score)
```

```
## # A tibble: 48 x 5
##    student_id test_site pre_test_score post_test_score  gain
##    <chr>      <chr>              <dbl>           <dbl> <dbl>
##  1 Virden 1   VIRDEN                43              92    49
##  2 Virden 2   VIRDEN                46             104    58
##  3 Virden 3   VIRDEN                39              75    36
##  4 Virden 4   VIRDEN                35             115    80
##  5 Virden 5   VIRDEN                46              85    39
##  6 Virden 6   VIRDEN                35              91    56
##  7 Virden 7   VIRDEN                40              96    56
##  8 Virden 8   VIRDEN                39              74    35
##  9 Virden 9   VIRDEN                40              90    50
## 10 Virden 10  VIRDEN                45              86    41
## # ... with 38 more rows
```
…
