Week 2: Workflow
…
---

### You can even read directly from the web 😲

### change link

```r
import("https://github.com/datalorax/ncme_18/raw/master/data/pubschls.csv",
       setclass = "tbl_df")
```

```
## # A tibble: 17,846 x 49
##          CDSCode NCESDist NCESSchool StatusType County  District  School  Street
##          <int64>    <int>      <int> <chr>      <chr>   <chr>     <chr>   <chr> 
##  1 1100170000000   691051         NA Active     Alameda Alameda ~ ""      313 W~
##  2 1100170109835   691051      10546 Closed     Alameda Alameda ~ "FAME ~ 39899~
##  3 1100170112607   691051      10947 Active     Alameda Alameda ~ "Envis~ 1515 ~
##  4 1100170118489   691051      12283 Closed     Alameda Alameda ~ "Aspir~ 2125 ~
##  5 1100170123968   691051      12844 Active     Alameda Alameda ~ "Commu~ 2111 ~
##  6 1100170124172   691051      12901 Active     Alameda Alameda ~ "Yu Mi~ 1086 ~
##  7 1100170125567   691051      13008 Active     Alameda Alameda ~ "Urban~ 5328 ~
##  8 1100170130302   691051         NA Closed     Alameda Alameda ~ "Techn~ 597 C~
##  9 1100170130401   691051       9264 Active     Alameda Alameda ~ "Alame~ 2500 ~
## 10 1100170130419   691051       6830 Active     Alameda Alameda ~ "Alame~ 313 W~
## # ... with 17,836 more rows, and 41 more variables: StreetAbr <chr>,
## #   City <chr>, Zip <chr>, State <chr>, MailStreet <chr>, MailStrAbr <chr>,
## #   MailCity <chr>, MailZip <chr>, MailState <chr>, Phone <chr>, Ext <int>,
## #   WebSite <chr>, OpenDate <chr>, ClosedDate <chr>, Charter <chr>,
## #   CharterNum <chr>, FundingType <chr>, DOC <int>, DOCType <chr>, SOC <int>,
## #   SOCType <chr>, EdOpsCode <chr>, EdOpsName <chr>, EILCode <chr>,
## #   EILName <chr>, GSoffered <chr>, GSserved <chr>, Virtual <chr>, ...
```
…
---

# What do our data look like?

```r
penguins
```

```
## # A tibble: 344 x 8
##    Species Island    `Bill Length (mm)` `Bill Depth (mm)` `Flipper Length (mm)`
##    <chr>   <chr>                  <dbl>             <dbl>                 <dbl>
##  1 Adelie  Torgersen               39.1              18.7                   181
##  2 Adelie  Torgersen               39.5              17.4                   186
##  3 Adelie  Torgersen               40.3              18                     195
##  4 Adelie  Torgersen               NA                NA                      NA
##  5 Adelie  Torgersen               36.7              19.3                   193
##  6 Adelie  Torgersen               39.3              20.6                   190
##  7 Adelie  Torgersen               38.9              17.8                   181
##  8 Adelie  Torgersen               39.2              19.6                   195
##  9 Adelie  Torgersen               34.1              18.1                   193
## 10 Adelie  Torgersen               42                20.2                   190
## # ... with 334 more rows, and 3 more variables: Body Mass (g) <dbl>, Sex <chr>,
## #   Year <dbl>
```
…
---

## Because `penguins` is a `tibble`

```r
penguins
```

```
## # A tibble: 344 x 8
##    species island    bill_length_mm bill_depth_mm flipper_length_mm body_mass_g
##    <chr>   <chr>              <dbl>         <dbl>             <dbl>       <dbl>
##  1 Adelie  Torgersen           39.1          18.7               181        3750
##  2 Adelie  Torgersen           39.5          17.4               186        3800
##  3 Adelie  Torgersen           40.3          18                 195        3250
##  4 Adelie  Torgersen           NA            NA                  NA          NA
##  5 Adelie  Torgersen           36.7          19.3               193        3450
##  6 Adelie  Torgersen           39.3          20.6               190        3650
##  7 Adelie  Torgersen           38.9          17.8               181        3625
##  8 Adelie  Torgersen           39.2          19.6               195        4675
##  9 Adelie  Torgersen           34.1          18.1               193        3475
## 10 Adelie  Torgersen           42            20.2               190        4250
## # ... with 334 more rows, and 2 more variables: sex <chr>, year <dbl>
```
…
