Week 3: Data Wrangling
…
Use select to order columns

library(fivethirtyeight)
college_grad_students

## # A tibble: 173 x 22
##    major_code major    major_category  grad_total grad_sample_size grad_employed
##         <int> <chr>    <chr>                <int>            <int>         <int>
##  1       5601 Constru~ Industrial Art~       9173              200          7098
##  2       6004 Commerc~ Arts                 53864              882         40492
##  3       6211 Hospita~ Business             24417              437         18368
##  4       2201 Cosmeto~ Industrial Art~       5411               72          3590
##  5       2001 Communi~ Computers & Ma~       9109              171          7512
##  6       3201 Court R~ Law & Public P~       1542               22          1008
##  7       6206 Marketi~ Business            190996             3738        151570
##  8       1101 Agricul~ Agriculture & ~      17488              386         13104
##  9       2101 Compute~ Computers & Ma~       5611               98          4716
## 10       1904 Adverti~ Communications~      33928              688         28517
## # ... with 163 more rows, and 16 more variables:
## #   grad_employed_fulltime_yearround <int>, grad_unemployed <int>,
## #   grad_unemployment_rate <dbl>, grad_p25th <dbl>, grad_median <dbl>,
## #   grad_p75th <int>, nongrad_total <int>, nongrad_employed <int>,
## #   nongrad_employed_fulltime_yearround <int>, nongrad_unemployed <int>,
## #   nongrad_unemployment_rate <dbl>, nongrad_p25th <dbl>, nongrad_median <dbl>,
## #   nongrad_p75th <dbl>, grad_share <dbl>, grad_premium <dbl>

Use select to order columns

college_grad_students %>%
    select(major_code, grad_total, grad_sample_size, everything())

## # A tibble: 173 x 22
##    major_code grad_total grad_sample_size major    major_category  grad_employed
##         <int>      <int>            <int> <chr>    <chr>                   <int>
##  1       5601       9173              200 Constru~ Industrial Art~          7098
##  2       6004      53864              882 Commerc~ Arts                    40492
##  3       6211      24417              437 Hospita~ Business                18368
##  4       2201       5411               72 Cosmeto~ Industrial Art~          3590
##  5       2001       9109              171 Communi~ Computers & Ma~          7512
##  6       3201       1542               22 Court R~ Law & Public P~          1008
##  7       6206     190996             3738 Marketi~ Business               151570
##  8       1101      17488              386 Agricul~ Agriculture & ~         13104
##  9       2101       5611               98 Compute~ Computers & Ma~          4716
## 10       1904      33928              688 Adverti~ Communications~         28517
## # ... with 163 more rows, and 16 more variables:
## #   grad_employed_fulltime_yearround <int>, grad_unemployed <int>,
## #   grad_unemployment_rate <dbl>, grad_p25th <dbl>, grad_median <dbl>,
## #   grad_p75th <int>, nongrad_total <int>, nongrad_employed <int>,
## #   nongrad_employed_fulltime_yearround <int>, nongrad_unemployed <int>,
## #   nongrad_unemployment_rate <dbl>, nongrad_p25th <dbl>, nongrad_median <dbl>,
## #   nongrad_p75th <dbl>, grad_share <dbl>, grad_premium <dbl>
…
Complete set of boolean operations - x is the left-hand circle - y is the right-hand circle - the shaded region show which parts each operator selects + xor == x or y except where they overlap

.footnote[ Image from Wickham & Grolemund (2017)]

filter() numeric

.pull-left[

mpg %>% 
  filter(cyl == 4)

## # A tibble: 81 x 11
##    manufacturer model      displ  year   cyl trans drv     cty   hwy fl    class
##    <chr>        <chr>      <dbl> <int> <int> <chr> <chr> <int> <int> <chr> <chr>
##  1 audi         a4           1.8  1999     4 auto~ f        18    29 p     comp~
##  2 audi         a4           1.8  1999     4 manu~ f        21    29 p     comp~
##  3 audi         a4           2    2008     4 manu~ f        20    31 p     comp~
##  4 audi         a4           2    2008     4 auto~ f        21    30 p     comp~
##  5 audi         a4 quattro   1.8  1999     4 manu~ 4        18    26 p     comp~
##  6 audi         a4 quattro   1.8  1999     4 auto~ 4        16    25 p     comp~
##  7 audi         a4 quattro   2    2008     4 manu~ 4        20    28 p     comp~
##  8 audi         a4 quattro   2    2008     4 auto~ 4        19    27 p     comp~
##  9 chevrolet    malibu       2.4  1999     4 auto~ f        19    27 r     mids~
## 10 chevrolet    malibu       2.4  2008     4 auto~ f        22    30 r     mids~
## # ... with 71 more rows

]

.pull-right[

mpg %>% 
  filter(hwy >= 22)

## # A tibble: 143 x 11
##    manufacturer model      displ  year   cyl trans drv     cty   hwy fl    class
##    <chr>        <chr>      <dbl> <int> <int> <chr> <chr> <int> <int> <chr> <chr>
##  1 audi         a4           1.8  1999     4 auto~ f        18    29 p     comp~
##  2 audi         a4           1.8  1999     4 manu~ f        21    29 p     comp~
##  3 audi         a4           2    2008     4 manu~ f        20    31 p     comp~
##  4 audi         a4           2    2008     4 auto~ f        21    30 p     comp~
##  5 audi         a4           2.8  1999     6 auto~ f        16    26 p     comp~
##  6 audi         a4           2.8  1999     6 manu~ f        18    26 p     comp~
##  7 audi         a4           3.1  2008     6 auto~ f        18    27 p     comp~
##  8 audi         a4 quattro   1.8  1999     4 manu~ 4        18    26 p     comp~
##  9 audi         a4 quattro   1.8  1999     4 auto~ 4        16    25 p     comp~
## 10 audi         a4 quattro   2    2008     4 manu~ 4        20    28 p     comp~
## # ... with 133 more rows
…
