Week 8: Tidy Data
…
.pull-left[

```r
relig_income %>% 
  pivot_longer(
    cols = -religion,
    names_to = "income",
    values_to = "frequency"
  )
```
]
.pull-right[

```
## # A tibble: 180 x 3
##    religion income             frequency
##    <chr>    <chr>                  <dbl>
##  1 Agnostic <$10k                     27
##  2 Agnostic $10-20k                   34
##  3 Agnostic $20-30k                   60
##  4 Agnostic $30-40k                   81
##  5 Agnostic $40-50k                   76
##  6 Agnostic $50-75k                  137
##  7 Agnostic $75-100k                 122
##  8 Agnostic $100-150k                109
##  9 Agnostic >150k                     84
## 10 Agnostic Don't know/refused        96
## # ... with 170 more rows
```
…
---
# Try it

```r
who_r %>%
 pivot_longer(
  cols = new_sp_m014:new_rel_f65,
  names_to = c("diagnosis", "gender", "age"), 
  names_sep = "_",
  values_to = "count"
)
```

```
## # A tibble: 405,440 x 8
*##    country     iso2  iso3   year diagnosis gender age   count
##    <chr>       <chr> <chr> <int> <chr>     <chr>  <chr> <int>
##  1 Afghanistan AF    AFG    1980 new       sp     m014     NA
##  2 Afghanistan AF    AFG    1980 new       sp     m1524    NA
##  3 Afghanistan AF    AFG    1980 new       sp     m2534    NA
##  4 Afghanistan AF    AFG    1980 new       sp     m3544    NA
##  5 Afghanistan AF    AFG    1980 new       sp     m4554    NA
##  6 Afghanistan AF    AFG    1980 new       sp     m5564    NA
##  7 Afghanistan AF    AFG    1980 new       sp     m65      NA
##  8 Afghanistan AF    AFG    1980 new       sp     f014     NA
##  9 Afghanistan AF    AFG    1980 new       sp     f1524    NA
## 10 Afghanistan AF    AFG    1980 new       sp     f2534    NA
## # ... with 405,430 more rows
```
…
